{
  "tagfile": {
    "compound": [
      {
        "@kind": "class",
        "name": {
          "$": "org::kde::kcm::AbstractKCM"
        },
        "filename": {
          "$": "classorg_1_1kde_1_1kcm_1_1AbstractKCM.html"
        },
        "base": {
          "$": "org::kde::kirigami::Page"
        },
        "member": [
          {
            "@kind": "property",
            "type": {
              "$": "bool"
            },
            "name": {
              "$": "framedView"
            },
            "anchorfile": {
              "$": "classorg_1_1kde_1_1kcm_1_1AbstractKCM.html"
            },
            "anchor": {
              "$": "af4635d50c4900fc15de488459a3d9742"
            },
            "arglist": {}
          },
          {
            "@kind": "property",
            "type": {
              "$": "int"
            },
            "name": {
              "$": "margins"
            },
            "anchorfile": {
              "$": "classorg_1_1kde_1_1kcm_1_1AbstractKCM.html"
            },
            "anchor": {
              "$": "a8698d88743711eb57471c78526a4b7b1"
            },
            "arglist": {}
          }
        ]
      },
      {
        "@kind": "class",
        "name": {
          "$": "Clipboard"
        },
        "filename": {
          "$": "classClipboard.html"
        },
        "base": {
          "$": "QObject"
        },
        "member": [
          {
            "@kind": "property",
            "type": {
              "$": "QVariant"
            },
            "name": {
              "$": "content"
            },
            "anchorfile": {
              "$": "classClipboard.html"
            },
            "anchor": {
              "$": "a37826c4ff1d3e074847aa1635b335da4"
            },
            "arglist": {}
          },
          {
            "@kind": "property",
            "type": {
              "$": "QStringList"
            },
            "name": {
              "$": "formats"
            },
            "anchorfile": {
              "$": "classClipboard.html"
            },
            "anchor": {
              "$": "a1b930d30b1f698ccba3073ef98c09ba3"
            },
            "arglist": {}
          },
          {
            "@kind": "property",
            "type": {
              "$": "QClipboard::Mode"
            },
            "name": {
              "$": "mode"
            },
            "anchorfile": {
              "$": "classClipboard.html"
            },
            "anchor": {
              "$": "ae6ad2e524f606fe4b61e567084877308"
            },
            "arglist": {}
          },
          {
            "@kind": "function",
            "type": {
              "$": "Q_SCRIPTABLE void"
            },
            "name": {
              "$": "clear"
            },
            "anchorfile": {
              "$": "classClipboard.html"
            },
            "anchor": {
              "$": "a01655a05452e67cc1ffaf7d0f215cce8"
            },
            "arglist": {
              "$": "()"
            }
          },
          {
            "@kind": "function",
            "type": {
              "$": "Q_SCRIPTABLE QVariant"
            },
            "name": {
              "$": "contentFormat"
            },
            "anchorfile": {
              "$": "classClipboard.html"
            },
            "anchor": {
              "$": "ae20e44144688502029ea9e7fea49d2ce"
            },
            "arglist": {
              "$": "(const QString &format) const"
            }
          }
        ]
      },
      {
        "@kind": "class",
        "name": {
          "$": "org::kde::kquickcontrols::ColorButton"
        },
        "filename": {
          "$": "classorg_1_1kde_1_1kquickcontrols_1_1ColorButton.html"
        },
        "member": [
          {
            "@kind": "property",
            "type": {
              "$": "real"
            },
            "name": {
              "$": "_buttonMarigns"
            },
            "anchorfile": {
              "$": "classorg_1_1kde_1_1kquickcontrols_1_1ColorButton.html"
            },
            "anchor": {
              "$": "af9c645b3499d6087397078b53674a693"
            },
            "arglist": {}
          },
          {
            "@kind": "property",
            "type": {
              "$": "alias"
            },
            "name": {
              "$": "color"
            },
            "anchorfile": {
              "$": "classorg_1_1kde_1_1kquickcontrols_1_1ColorButton.html"
            },
            "anchor": {
              "$": "a0f2a3ae0d8a5b5b1c1af2cb23ed71fd4"
            },
            "arglist": {}
          },
          {
            "@kind": "property",
            "type": {
              "$": "alias"
            },
            "name": {
              "$": "currentColor"
            },
            "anchorfile": {
              "$": "classorg_1_1kde_1_1kquickcontrols_1_1ColorButton.html"
            },
            "anchor": {
              "$": "ab5fa3bab6a1983150eaed40ef5720ae5"
            },
            "arglist": {}
          },
          {
            "@kind": "property",
            "type": {
              "$": "alias"
            },
            "name": {
              "$": "dialogTitle"
            },
            "anchorfile": {
              "$": "classorg_1_1kde_1_1kquickcontrols_1_1ColorButton.html"
            },
            "anchor": {
              "$": "abb4bf9127ac835bd948f1141a950251e"
            },
            "arglist": {}
          },
          {
            "@kind": "property",
            "type": {
              "$": "alias"
            },
            "name": {
              "$": "showAlphaChannel"
            },
            "anchorfile": {
              "$": "classorg_1_1kde_1_1kquickcontrols_1_1ColorButton.html"
            },
            "anchor": {
              "$": "a4cc77cf1a554800b23ab6b0a1e30e779"
            },
            "arglist": {}
          },
          {
            "@kind": "signal",
            "type": {
              "$": "void"
            },
            "name": {
              "$": "accepted"
            },
            "anchorfile": {
              "$": "classorg_1_1kde_1_1kquickcontrols_1_1ColorButton.html"
            },
            "anchor": {
              "$": "a3c8900a41b964202a553332b90d27a60"
            },
            "arglist": {
              "$": "(color color)"
            }
          }
        ]
      },
      {
        "@kind": "class",
        "name": {
          "$": "KQuickAddons::ConfigModule"
        },
        "filename": {
          "$": "classKQuickAddons_1_1ConfigModule.html"
        },
        "base": {
          "$": "QObject"
        },
        "member": [
          {
            "@kind": "enumeration",
            "type": {},
            "name": {
              "$": "Button"
            },
            "anchorfile": {
              "$": "classKQuickAddons_1_1ConfigModule.html"
            },
            "anchor": {
              "$": "af01b919b1a15263445b7a27fc08e6225"
            },
            "arglist": {}
          },
          {
            "@kind": "signal",
            "type": {
              "$": "void"
            },
            "name": {
              "$": "authActionNameChanged"
            },
            "anchorfile": {
              "$": "classKQuickAddons_1_1ConfigModule.html"
            },
            "anchor": {
              "$": "a7def293c57916041b4a89743316f1cce"
            },
            "arglist": {
              "$": "()"
            }
          },
          {
            "@kind": "signal",
            "type": {
              "$": "void"
            },
            "name": {
              "$": "buttonsChanged"
            },
            "anchorfile": {
              "$": "classKQuickAddons_1_1ConfigModule.html"
            },
            "anchor": {
              "$": "ad0e3f1c566a75ee1d6e90aea7d340560"
            },
            "arglist": {
              "$": "()"
            }
          },
          {
            "@kind": "signal",
            "type": {
              "$": "void"
            },
            "name": {
              "$": "columnWidthChanged"
            },
            "anchorfile": {
              "$": "classKQuickAddons_1_1ConfigModule.html"
            },
            "anchor": {
              "$": "acd519264c5f2c49ee8a805aa814327b7"
            },
            "arglist": {
              "$": "(int width)"
            }
          },
          {
            "@kind": "signal",
            "type": {
              "$": "void"
            },
            "name": {
              "$": "currentIndexChanged"
            },
            "anchorfile": {
              "$": "classKQuickAddons_1_1ConfigModule.html"
            },
            "anchor": {
              "$": "a54bfd77f28ba7ad3f36fc391464d2572"
            },
            "arglist": {
              "$": "(int index)"
            }
          },
          {
            "@kind": "signal",
            "type": {
              "$": "void"
            },
            "name": {
              "$": "defaultsIndicatorsVisibleChanged"
            },
            "anchorfile": {
              "$": "classKQuickAddons_1_1ConfigModule.html"
            },
            "anchor": {
              "$": "a7da36dedc48eb42330f5e7269d12d3ff"
            },
            "arglist": {
              "$": "()"
            }
          },
          {
            "@kind": "signal",
            "type": {
              "$": "void"
            },
            "name": {
              "$": "depthChanged"
            },
            "anchorfile": {
              "$": "classKQuickAddons_1_1ConfigModule.html"
            },
            "anchor": {
              "$": "a7c44e1bb2188312e13a5fd7c48f28ee6"
            },
            "arglist": {
              "$": "(int index)"
            }
          },
          {
            "@kind": "signal",
            "type": {
              "$": "void"
            },
            "name": {
              "$": "needsAuthorizationChanged"
            },
            "anchorfile": {
              "$": "classKQuickAddons_1_1ConfigModule.html"
            },
            "anchor": {
              "$": "a07d2fcff0069b0582f9d55d355b9396e"
            },
            "arglist": {
              "$": "()"
            }
          },
          {
            "@kind": "signal",
            "type": {
              "$": "void"
            },
            "name": {
              "$": "needsSaveChanged"
            },
            "anchorfile": {
              "$": "classKQuickAddons_1_1ConfigModule.html"
            },
            "anchor": {
              "$": "a7633b09cee3e3e419a73c991ae9e49f4"
            },
            "arglist": {
              "$": "()"
            }
          },
          {
            "@kind": "signal",
            "type": {
              "$": "void"
            },
            "name": {
              "$": "pagePushed"
            },
            "anchorfile": {
              "$": "classKQuickAddons_1_1ConfigModule.html"
            },
            "anchor": {
              "$": "a49f5843fd87c53a1d8dc56e7604eb38e"
            },
            "arglist": {
              "$": "(QQuickItem *page)"
            }
          },
          {
            "@kind": "signal",
            "type": {
              "$": "void"
            },
            "name": {
              "$": "pageRemoved"
            },
            "anchorfile": {
              "$": "classKQuickAddons_1_1ConfigModule.html"
            },
            "anchor": {
              "$": "affe9fab554582208cade5ba17c91bbb4"
            },
            "arglist": {
              "$": "()"
            }
          },
          {
            "@kind": "signal",
            "type": {
              "$": "void"
            },
            "name": {
              "$": "passiveNotificationRequested"
            },
            "anchorfile": {
              "$": "classKQuickAddons_1_1ConfigModule.html"
            },
            "anchor": {
              "$": "a184342b1baaad106556ccf6cd9452dbb"
            },
            "arglist": {
              "$": "(const QString &message, const QVariant &timeout, const QString &actionText, const QJSValue &callBack)"
            }
          },
          {
            "@kind": "signal",
            "type": {
              "$": "void"
            },
            "name": {
              "$": "quickHelpChanged"
            },
            "anchorfile": {
              "$": "classKQuickAddons_1_1ConfigModule.html"
            },
            "anchor": {
              "$": "aca1510b4319baf0d7af2fc68f3428494"
            },
            "arglist": {
              "$": "()"
            }
          },
          {
            "@kind": "signal",
            "type": {
              "$": "void"
            },
            "name": {
              "$": "representsDefaultsChanged"
            },
            "anchorfile": {
              "$": "classKQuickAddons_1_1ConfigModule.html"
            },
            "anchor": {
              "$": "a166318bff802db18902f3f3f61427c3e"
            },
            "arglist": {
              "$": "()"
            }
          },
          {
            "@kind": "signal",
            "type": {
              "$": "void"
            },
            "name": {
              "$": "rootOnlyMessageChanged"
            },
            "anchorfile": {
              "$": "classKQuickAddons_1_1ConfigModule.html"
            },
            "anchor": {
              "$": "ab6acbb858354c23005c7634af63e13fc"
            },
            "arglist": {
              "$": "()"
            }
          },
          {
            "@kind": "signal",
            "type": {
              "$": "void"
            },
            "name": {
              "$": "useRootOnlyMessageChanged"
            },
            "anchorfile": {
              "$": "classKQuickAddons_1_1ConfigModule.html"
            },
            "anchor": {
              "$": "ad6a4b066039a4f1f0cb7572d357ca4ae"
            },
            "arglist": {
              "$": "()"
            }
          },
          {
            "@kind": "slot",
            "@virtualness": "virtual",
            "type": {
              "$": "virtual void"
            },
            "name": {
              "$": "defaults"
            },
            "anchorfile": {
              "$": "classKQuickAddons_1_1ConfigModule.html"
            },
            "anchor": {
              "$": "a0565e9c7878ab7ddc4a1b83aa2796102"
            },
            "arglist": {
              "$": "()"
            }
          },
          {
            "@kind": "slot",
            "@virtualness": "virtual",
            "type": {
              "$": "virtual void"
            },
            "name": {
              "$": "load"
            },
            "anchorfile": {
              "$": "classKQuickAddons_1_1ConfigModule.html"
            },
            "anchor": {
              "$": "a5880e378b8f40325a54b2a54de5bb1a2"
            },
            "arglist": {
              "$": "()"
            }
          },
          {
            "@kind": "slot",
            "type": {
              "$": "void"
            },
            "name": {
              "$": "pop"
            },
            "anchorfile": {
              "$": "classKQuickAddons_1_1ConfigModule.html"
            },
            "anchor": {
              "$": "a4c4906aaadac8fa3c1b93ea6f5e11a0a"
            },
            "arglist": {
              "$": "()"
            }
          },
          {
            "@kind": "slot",
            "type": {
              "$": "void"
            },
            "name": {
              "$": "push"
            },
            "anchorfile": {
              "$": "classKQuickAddons_1_1ConfigModule.html"
            },
            "anchor": {
              "$": "ac6db7185f0f49d8b739ffc24aab2b5a0"
            },
            "arglist": {
              "$": "(const QString &fileName, const QVariantMap &propertyMap=QVariantMap())"
            }
          },
          {
            "@kind": "slot",
            "@virtualness": "virtual",
            "type": {
              "$": "virtual void"
            },
            "name": {
              "$": "save"
            },
            "anchorfile": {
              "$": "classKQuickAddons_1_1ConfigModule.html"
            },
            "anchor": {
              "$": "a2a95833182941b69cf99e311d0ece5bb"
            },
            "arglist": {
              "$": "()"
            }
          },
          {
            "@kind": "slot",
            "type": {
              "$": "void"
            },
            "name": {
              "$": "setDefaultsIndicatorsVisible"
            },
            "anchorfile": {
              "$": "classKQuickAddons_1_1ConfigModule.html"
            },
            "anchor": {
              "$": "adcc2f2c643ab3c06081497f3504d47a1"
            },
            "arglist": {
              "$": "(bool visible)"
            }
          },
          {
            "@kind": "slot",
            "type": {
              "$": "void"
            },
            "name": {
              "$": "showPassiveNotification"
            },
            "anchorfile": {
              "$": "classKQuickAddons_1_1ConfigModule.html"
            },
            "anchor": {
              "$": "a0ac591653957c51bbcf4aeb03bed3ca1"
            },
            "arglist": {
              "$": "(const QString &message, const QVariant &timeout=QVariant(), const QString &actionText=QString(), const QJSValue &callBack=QJSValue())"
            }
          },
          {
            "@kind": "slot",
            "type": {
              "$": "QQuickItem *"
            },
            "name": {
              "$": "takeLast"
            },
            "anchorfile": {
              "$": "classKQuickAddons_1_1ConfigModule.html"
            },
            "anchor": {
              "$": "a8ca0088ee14a148f46c98ae6974a232b"
            },
            "arglist": {
              "$": "()"
            }
          },
          {
            "@kind": "function",
            "type": {},
            "name": {
              "$": "ConfigModule"
            },
            "anchorfile": {
              "$": "classKQuickAddons_1_1ConfigModule.html"
            },
            "anchor": {
              "$": "aff6b163adc7eb2c7f2d09149ea53a2a4"
            },
            "arglist": {
              "$": "(const KAboutData *aboutData, QObject *parent=nullptr, const QVariantList &args=QVariantList())"
            }
          },
          {
            "@kind": "function",
            "type": {},
            "name": {
              "$": "ConfigModule"
            },
            "anchorfile": {
              "$": "classKQuickAddons_1_1ConfigModule.html"
            },
            "anchor": {
              "$": "a27f26406b38f95fde41027aaf0ab1414"
            },
            "arglist": {
              "$": "(const KPluginMetaData &metaData, QObject *parent=nullptr, const QVariantList &args=QVariantList())"
            }
          },
          {
            "@kind": "function",
            "type": {},
            "name": {
              "$": "ConfigModule"
            },
            "anchorfile": {
              "$": "classKQuickAddons_1_1ConfigModule.html"
            },
            "anchor": {
              "$": "adb8c6776c67fb3dea9f17d884d623bd1"
            },
            "arglist": {
              "$": "(QObject *parent, const KPluginMetaData &metaData, const QVariantList &args=QVariantList())"
            }
          },
          {
            "@kind": "function",
            "type": {},
            "name": {
              "$": "ConfigModule"
            },
            "anchorfile": {
              "$": "classKQuickAddons_1_1ConfigModule.html"
            },
            "anchor": {
              "$": "afd9d57c757d11bc44205c6f9b8dab0ec"
            },
            "arglist": {
              "$": "(QObject *parent=nullptr, const QVariantList &args=QVariantList())"
            }
          },
          {
            "@kind": "function",
            "type": {},
            "name": {
              "$": "~ConfigModule"
            },
            "anchorfile": {
              "$": "classKQuickAddons_1_1ConfigModule.html"
            },
            "anchor": {
              "$": "ac8be0eb407bee7e54c4cac7053cdecb1"
            },
            "arglist": {
              "$": "() override"
            }
          },
          {
            "@kind": "function",
            "type": {
              "$": "const KAboutData *"
            },
            "name": {
              "$": "aboutData"
            },
            "anchorfile": {
              "$": "classKQuickAddons_1_1ConfigModule.html"
            },
            "anchor": {
              "$": "a4f7a2c65040e6f42c8a31f086ecf03ee"
            },
            "arglist": {
              "$": "() const"
            }
          },
          {
            "@kind": "function",
            "type": {
              "$": "QString"
            },
            "name": {
              "$": "authActionName"
            },
            "anchorfile": {
              "$": "classKQuickAddons_1_1ConfigModule.html"
            },
            "anchor": {
              "$": "a2b3277c743fe3e1a6091adb93d5a8efd"
            },
            "arglist": {
              "$": "() const"
            }
          },
          {
            "@kind": "function",
            "type": {
              "$": "Buttons"
            },
            "name": {
              "$": "buttons"
            },
            "anchorfile": {
              "$": "classKQuickAddons_1_1ConfigModule.html"
            },
            "anchor": {
              "$": "aa42076b8a5df83498be320300d4565d3"
            },
            "arglist": {
              "$": "() const"
            }
          },
          {
            "@kind": "function",
            "type": {
              "$": "int"
            },
            "name": {
              "$": "columnWidth"
            },
            "anchorfile": {
              "$": "classKQuickAddons_1_1ConfigModule.html"
            },
            "anchor": {
              "$": "a392ceed0834a45e8d65fc8d80c5c0255"
            },
            "arglist": {
              "$": "() const"
            }
          },
          {
            "@kind": "function",
            "type": {
              "$": "int"
            },
            "name": {
              "$": "currentIndex"
            },
            "anchorfile": {
              "$": "classKQuickAddons_1_1ConfigModule.html"
            },
            "anchor": {
              "$": "a2929ea807efe0969fd70b5b8a0a6ee13"
            },
            "arglist": {
              "$": "() const"
            }
          },
          {
            "@kind": "function",
            "type": {
              "$": "bool"
            },
            "name": {
              "$": "defaultsIndicatorsVisible"
            },
            "anchorfile": {
              "$": "classKQuickAddons_1_1ConfigModule.html"
            },
            "anchor": {
              "$": "a4e2bd0a59bd775cfa34bf33ad18becd1"
            },
            "arglist": {
              "$": "() const"
            }
          },
          {
            "@kind": "function",
            "type": {
              "$": "int"
            },
            "name": {
              "$": "depth"
            },
            "anchorfile": {
              "$": "classKQuickAddons_1_1ConfigModule.html"
            },
            "anchor": {
              "$": "af79846f4cc043100f638e07c15810b88"
            },
            "arglist": {
              "$": "() const"
            }
          },
          {
            "@kind": "function",
            "type": {
              "$": "QString"
            },
            "name": {
              "$": "description"
            },
            "anchorfile": {
              "$": "classKQuickAddons_1_1ConfigModule.html"
            },
            "anchor": {
              "$": "aa931fccf9186ada1d7fc89b3910934cd"
            },
            "arglist": {
              "$": "() const"
            }
          },
          {
            "@kind": "function",
            "type": {
              "$": "QQmlEngine *"
            },
            "name": {
              "$": "engine"
            },
            "anchorfile": {
              "$": "classKQuickAddons_1_1ConfigModule.html"
            },
            "anchor": {
              "$": "a29a837141e0b4175c4329239b7650e69"
            },
            "arglist": {
              "$": "() const"
            }
          },
          {
            "@kind": "function",
            "type": {
              "$": "QString"
            },
            "name": {
              "$": "errorString"
            },
            "anchorfile": {
              "$": "classKQuickAddons_1_1ConfigModule.html"
            },
            "anchor": {
              "$": "a51883cf42b6dc3af6350c41bbeca2515"
            },
            "arglist": {
              "$": "() const"
            }
          },
          {
            "@kind": "function",
            "type": {
              "$": "QQuickItem *"
            },
            "name": {
              "$": "mainUi"
            },
            "anchorfile": {
              "$": "classKQuickAddons_1_1ConfigModule.html"
            },
            "anchor": {
              "$": "a53f4c116a5be72f91da9b67edab641a3"
            },
            "arglist": {
              "$": "()"
            }
          },
          {
            "@kind": "function",
            "type": {
              "$": "QString"
            },
            "name": {
              "$": "name"
            },
            "anchorfile": {
              "$": "classKQuickAddons_1_1ConfigModule.html"
            },
            "anchor": {
              "$": "a86eb29b52f98de41a60c77cb8e2726c3"
            },
            "arglist": {
              "$": "() const"
            }
          },
          {
            "@kind": "function",
            "type": {
              "$": "bool"
            },
            "name": {
              "$": "needsAuthorization"
            },
            "anchorfile": {
              "$": "classKQuickAddons_1_1ConfigModule.html"
            },
            "anchor": {
              "$": "a23fb814369411e92cfd9c12fb9f02d17"
            },
            "arglist": {
              "$": "() const"
            }
          },
          {
            "@kind": "function",
            "type": {
              "$": "bool"
            },
            "name": {
              "$": "needsSave"
            },
            "anchorfile": {
              "$": "classKQuickAddons_1_1ConfigModule.html"
            },
            "anchor": {
              "$": "a59f530e459530a73cbb4ae46ecd76059"
            },
            "arglist": {
              "$": "()"
            }
          },
          {
            "@kind": "function",
            "type": {
              "$": "QString"
            },
            "name": {
              "$": "quickHelp"
            },
            "anchorfile": {
              "$": "classKQuickAddons_1_1ConfigModule.html"
            },
            "anchor": {
              "$": "a0c34a82278908af5f43e7532b48e139a"
            },
            "arglist": {
              "$": "() const"
            }
          },
          {
            "@kind": "function",
            "type": {
              "$": "bool"
            },
            "name": {
              "$": "representsDefaults"
            },
            "anchorfile": {
              "$": "classKQuickAddons_1_1ConfigModule.html"
            },
            "anchor": {
              "$": "aced8e2ea0cbc5b9beb98c003078a10a5"
            },
            "arglist": {
              "$": "()"
            }
          },
          {
            "@kind": "function",
            "type": {
              "$": "QString"
            },
            "name": {
              "$": "rootOnlyMessage"
            },
            "anchorfile": {
              "$": "classKQuickAddons_1_1ConfigModule.html"
            },
            "anchor": {
              "$": "a8ea4e576cd40aa4a86111e178e0809b9"
            },
            "arglist": {
              "$": "() const"
            }
          },
          {
            "@kind": "function",
            "type": {
              "$": "void"
            },
            "name": {
              "$": "setAboutData"
            },
            "anchorfile": {
              "$": "classKQuickAddons_1_1ConfigModule.html"
            },
            "anchor": {
              "$": "a0fba18519127c8139f02e272f1ac3fdd"
            },
            "arglist": {
              "$": "(const KAboutData *about)"
            }
          },
          {
            "@kind": "function",
            "type": {
              "$": "void"
            },
            "name": {
              "$": "setAuthActionName"
            },
            "anchorfile": {
              "$": "classKQuickAddons_1_1ConfigModule.html"
            },
            "anchor": {
              "$": "addb62ff7ad8266a12ca15f27fa0b45f5"
            },
            "arglist": {
              "$": "(const QString &action)"
            }
          },
          {
            "@kind": "function",
            "type": {
              "$": "void"
            },
            "name": {
              "$": "setButtons"
            },
            "anchorfile": {
              "$": "classKQuickAddons_1_1ConfigModule.html"
            },
            "anchor": {
              "$": "a109e25082f42134c37c8ea4ea4b7c56f"
            },
            "arglist": {
              "$": "(const Buttons btn)"
            }
          },
          {
            "@kind": "function",
            "type": {
              "$": "void"
            },
            "name": {
              "$": "setColumnWidth"
            },
            "anchorfile": {
              "$": "classKQuickAddons_1_1ConfigModule.html"
            },
            "anchor": {
              "$": "ab5076a01cdd214abc900a2df7a2c5580"
            },
            "arglist": {
              "$": "(int width)"
            }
          },
          {
            "@kind": "function",
            "type": {
              "$": "void"
            },
            "name": {
              "$": "setCurrentIndex"
            },
            "anchorfile": {
              "$": "classKQuickAddons_1_1ConfigModule.html"
            },
            "anchor": {
              "$": "a051a6c2b82248a934fb62b7af68d06d3"
            },
            "arglist": {
              "$": "(int index)"
            }
          },
          {
            "@kind": "function",
            "type": {
              "$": "void"
            },
            "name": {
              "$": "setNeedsAuthorization"
            },
            "anchorfile": {
              "$": "classKQuickAddons_1_1ConfigModule.html"
            },
            "anchor": {
              "$": "a8483a64dcf93b733e1cfd1db4fd8b989"
            },
            "arglist": {
              "$": "(bool needsAuth)"
            }
          },
          {
            "@kind": "function",
            "type": {
              "$": "void"
            },
            "name": {
              "$": "setNeedsSave"
            },
            "anchorfile": {
              "$": "classKQuickAddons_1_1ConfigModule.html"
            },
            "anchor": {
              "$": "a1f7a3b5ca7b60e821d547937d6a3d992"
            },
            "arglist": {
              "$": "(bool needs)"
            }
          },
          {
            "@kind": "function",
            "type": {
              "$": "void"
            },
            "name": {
              "$": "setQuickHelp"
            },
            "anchorfile": {
              "$": "classKQuickAddons_1_1ConfigModule.html"
            },
            "anchor": {
              "$": "a32d304a8726f89da333d38adbbae0952"
            },
            "arglist": {
              "$": "(const QString &help)"
            }
          },
          {
            "@kind": "function",
            "type": {
              "$": "void"
            },
            "name": {
              "$": "setRepresentsDefaults"
            },
            "anchorfile": {
              "$": "classKQuickAddons_1_1ConfigModule.html"
            },
            "anchor": {
              "$": "a48421cff457fcf05a1d590f6ed937c98"
            },
            "arglist": {
              "$": "(bool defaults)"
            }
          },
          {
            "@kind": "function",
            "type": {
              "$": "void"
            },
            "name": {
              "$": "setRootOnlyMessage"
            },
            "anchorfile": {
              "$": "classKQuickAddons_1_1ConfigModule.html"
            },
            "anchor": {
              "$": "a27c7b133ef78fc9d0ae704519babe933"
            },
            "arglist": {
              "$": "(const QString &message)"
            }
          },
          {
            "@kind": "function",
            "type": {
              "$": "void"
            },
            "name": {
              "$": "setUseRootOnlyMessage"
            },
            "anchorfile": {
              "$": "classKQuickAddons_1_1ConfigModule.html"
            },
            "anchor": {
              "$": "a89189ff460977c6d350f956eb58ae36e"
            },
            "arglist": {
              "$": "(bool on)"
            }
          },
          {
            "@kind": "function",
            "type": {
              "$": "QQmlComponent::Status"
            },
            "name": {
              "$": "status"
            },
            "anchorfile": {
              "$": "classKQuickAddons_1_1ConfigModule.html"
            },
            "anchor": {
              "$": "a1a62cc9a5a45621e70ddef0c218b72d7"
            },
            "arglist": {
              "$": "() const"
            }
          },
          {
            "@kind": "function",
            "type": {
              "$": "bool"
            },
            "name": {
              "$": "useRootOnlyMessage"
            },
            "anchorfile": {
              "$": "classKQuickAddons_1_1ConfigModule.html"
            },
            "anchor": {
              "$": "a1a7b5767d350f98b6343ffcf6a64c771"
            },
            "arglist": {
              "$": "() const"
            }
          }
        ]
      },
      {
        "@kind": "class",
        "name": {
          "$": "KDeclarative::ConfigPropertyMap"
        },
        "filename": {
          "$": "classKDeclarative_1_1ConfigPropertyMap.html"
        },
        "base": {
          "$": "QQmlPropertyMap"
        },
        "member": [
          {
            "@kind": "function",
            "type": {
              "$": "bool"
            },
            "name": {
              "$": "isAutosave"
            },
            "anchorfile": {
              "$": "classKDeclarative_1_1ConfigPropertyMap.html"
            },
            "anchor": {
              "$": "a943de18e72fc0cd89d0aa097ab2d9d1a"
            },
            "arglist": {
              "$": "() const"
            }
          },
          {
            "@kind": "function",
            "type": {
              "$": "Q_INVOKABLE bool"
            },
            "name": {
              "$": "isImmutable"
            },
            "anchorfile": {
              "$": "classKDeclarative_1_1ConfigPropertyMap.html"
            },
            "anchor": {
              "$": "a162ee6f16fa28faf9184cbe410e48e66"
            },
            "arglist": {
              "$": "(const QString &key) const"
            }
          },
          {
            "@kind": "function",
            "type": {
              "$": "bool"
            },
            "name": {
              "$": "isNotify"
            },
            "anchorfile": {
              "$": "classKDeclarative_1_1ConfigPropertyMap.html"
            },
            "anchor": {
              "$": "acabf6042a55291e30d299e0ba7fa1ffd"
            },
            "arglist": {
              "$": "() const"
            }
          },
          {
            "@kind": "function",
            "type": {
              "$": "void"
            },
            "name": {
              "$": "setAutosave"
            },
            "anchorfile": {
              "$": "classKDeclarative_1_1ConfigPropertyMap.html"
            },
            "anchor": {
              "$": "a7bf2fafe4f8d3e22a37d17604274c0c4"
            },
            "arglist": {
              "$": "(bool autosave)"
            }
          },
          {
            "@kind": "function",
            "type": {
              "$": "void"
            },
            "name": {
              "$": "setNotify"
            },
            "anchorfile": {
              "$": "classKDeclarative_1_1ConfigPropertyMap.html"
            },
            "anchor": {
              "$": "a91b906daef52d0bcdbcf8f503139019b"
            },
            "arglist": {
              "$": "(bool notify)"
            }
          }
        ]
      },
      {
        "@kind": "class",
        "name": {
          "$": "org::kde::kcm::ContextualHelpButton"
        },
        "filename": {
          "$": "classorg_1_1kde_1_1kcm_1_1ContextualHelpButton.html"
        }
      },
      {
        "@kind": "class",
        "name": {
          "$": "DeclarativeMimeData"
        },
        "filename": {
          "$": "classDeclarativeMimeData.html"
        },
        "base": {
          "$": "QMimeData"
        },
        "member": [
          {
            "@kind": "property",
            "type": {
              "$": "QColor"
            },
            "name": {
              "$": "color"
            },
            "anchorfile": {
              "$": "classDeclarativeMimeData.html"
            },
            "anchor": {
              "$": "a6832aee52f18de3dadcfbafc0d755f64"
            },
            "arglist": {}
          },
          {
            "@kind": "property",
            "type": {
              "$": "QStringList"
            },
            "name": {
              "$": "formats"
            },
            "anchorfile": {
              "$": "classDeclarativeMimeData.html"
            },
            "anchor": {
              "$": "a90b9b3a290d693131da0264bde23c499"
            },
            "arglist": {}
          },
          {
            "@kind": "property",
            "type": {
              "$": "bool"
            },
            "name": {
              "$": "hasUrls"
            },
            "anchorfile": {
              "$": "classDeclarativeMimeData.html"
            },
            "anchor": {
              "$": "a0776d0dcc66314f30f2e34dc3b5cd7d6"
            },
            "arglist": {}
          },
          {
            "@kind": "property",
            "type": {
              "$": "QString"
            },
            "name": {
              "$": "html"
            },
            "anchorfile": {
              "$": "classDeclarativeMimeData.html"
            },
            "anchor": {
              "$": "a18e3c25df301eb09bac6c86ab3692f61"
            },
            "arglist": {}
          },
          {
            "@kind": "property",
            "type": {
              "$": "QQuickItem"
            },
            "name": {
              "$": "source"
            },
            "anchorfile": {
              "$": "classDeclarativeMimeData.html"
            },
            "anchor": {
              "$": "acb750a17d90b323a1dfa81f139317425"
            },
            "arglist": {}
          },
          {
            "@kind": "property",
            "type": {
              "$": "QString"
            },
            "name": {
              "$": "text"
            },
            "anchorfile": {
              "$": "classDeclarativeMimeData.html"
            },
            "anchor": {
              "$": "a4239f7399a5b7f272e4609dfaed01499"
            },
            "arglist": {}
          },
          {
            "@kind": "property",
            "type": {
              "$": "QUrl"
            },
            "name": {
              "$": "url"
            },
            "anchorfile": {
              "$": "classDeclarativeMimeData.html"
            },
            "anchor": {
              "$": "a5b84899200933b6b293db57960943309"
            },
            "arglist": {}
          },
          {
            "@kind": "property",
            "type": {
              "$": "QJsonArray"
            },
            "name": {
              "$": "urls"
            },
            "anchorfile": {
              "$": "classDeclarativeMimeData.html"
            },
            "anchor": {
              "$": "a3127ec94a03dcb687cae1999332d8500"
            },
            "arglist": {}
          },
          {
            "@kind": "function",
            "type": {},
            "name": {
              "$": "DeclarativeMimeData"
            },
            "anchorfile": {
              "$": "classDeclarativeMimeData.html"
            },
            "anchor": {
              "$": "a0a61cfcdf632d04b902be3313b9f1f3d"
            },
            "arglist": {
              "$": "()"
            }
          }
        ]
      },
      {
        "@kind": "class",
        "name": {
          "$": "org::kde::kcm::GridDelegate"
        },
        "filename": {
          "$": "classorg_1_1kde_1_1kcm_1_1GridDelegate.html"
        },
        "member": [
          {
            "@kind": "property",
            "type": {
              "$": "list< QtObject >"
            },
            "name": {
              "$": "actions"
            },
            "anchorfile": {
              "$": "classorg_1_1kde_1_1kcm_1_1GridDelegate.html"
            },
            "anchor": {
              "$": "a25243faba348e7a4d526cce00aad96c0"
            },
            "arglist": {}
          },
          {
            "@kind": "property",
            "type": {
              "$": "string"
            },
            "name": {
              "$": "subtitle"
            },
            "anchorfile": {
              "$": "classorg_1_1kde_1_1kcm_1_1GridDelegate.html"
            },
            "anchor": {
              "$": "af9e8b1df0f0b2ff9e54ef3d39f42cc2f"
            },
            "arglist": {}
          },
          {
            "@kind": "property",
            "type": {
              "$": "alias"
            },
            "name": {
              "$": "thumbnail"
            },
            "anchorfile": {
              "$": "classorg_1_1kde_1_1kcm_1_1GridDelegate.html"
            },
            "anchor": {
              "$": "a1288d4e3288caf7032fe8ce384d5b8c3"
            },
            "arglist": {}
          },
          {
            "@kind": "property",
            "type": {
              "$": "bool"
            },
            "name": {
              "$": "thumbnailAvailable"
            },
            "anchorfile": {
              "$": "classorg_1_1kde_1_1kcm_1_1GridDelegate.html"
            },
            "anchor": {
              "$": "a572ace1fa794798a4b629e0745bd680d"
            },
            "arglist": {}
          },
          {
            "@kind": "property",
            "type": {
              "$": "string"
            },
            "name": {
              "$": "toolTip"
            },
            "anchorfile": {
              "$": "classorg_1_1kde_1_1kcm_1_1GridDelegate.html"
            },
            "anchor": {
              "$": "af46c563f6aecc6efa87611881d100842"
            },
            "arglist": {}
          }
        ]
      },
      {
        "@kind": "class",
        "name": {
          "$": "org::kde::kcm::GridView"
        },
        "filename": {
          "$": "classorg_1_1kde_1_1kcm_1_1GridView.html"
        },
        "member": {
          "@kind": "property",
          "type": {
            "$": "alias"
          },
          "name": {
            "$": "view"
          },
          "anchorfile": {
            "$": "classorg_1_1kde_1_1kcm_1_1GridView.html"
          },
          "anchor": {
            "$": "a6729c4769cfc3779f63dd9689d863212"
          },
          "arglist": {}
        }
      },
      {
        "@kind": "class",
        "name": {
          "$": "org::kde::kcm::GridViewKCM"
        },
        "filename": {
          "$": "classorg_1_1kde_1_1kcm_1_1GridViewKCM.html"
        },
        "member": {
          "@kind": "property",
          "type": {
            "$": "alias"
          },
          "name": {
            "$": "view"
          },
          "anchorfile": {
            "$": "classorg_1_1kde_1_1kcm_1_1GridViewKCM.html"
          },
          "anchor": {
            "$": "a96d8d52f08112e26d036b19c42966cb4"
          },
          "arglist": {}
        }
      },
      {
        "@kind": "class",
        "name": {
          "$": "ImageTexturesCache"
        },
        "filename": {
          "$": "classImageTexturesCache.html"
        },
        "member": {
          "@kind": "function",
          "type": {
            "$": "QSharedPointer< QSGTexture >"
          },
          "name": {
            "$": "loadTexture"
          },
          "anchorfile": {
            "$": "classImageTexturesCache.html"
          },
          "anchor": {
            "$": "aa35543053f2fd3a2de1462e14f0fe6ee"
          },
          "arglist": {
            "$": "(QQuickWindow *window, const QImage &image, QQuickWindow::CreateTextureOptions options)"
          }
        }
      },
      {
        "@kind": "class",
        "name": {
          "$": "KDeclarative::KDeclarative"
        },
        "filename": {
          "$": "classKDeclarative_1_1KDeclarative.html"
        },
        "member": [
          {
            "@kind": "function",
            "type": {
              "$": "QQmlEngine *"
            },
            "name": {
              "$": "declarativeEngine"
            },
            "anchorfile": {
              "$": "classKDeclarative_1_1KDeclarative.html"
            },
            "anchor": {
              "$": "ac40e3b378d334bde4f7ba8810a44cc99"
            },
            "arglist": {
              "$": "() const"
            }
          },
          {
            "@kind": "function",
            "type": {
              "$": "void"
            },
            "name": {
              "$": "initialize"
            },
            "anchorfile": {
              "$": "classKDeclarative_1_1KDeclarative.html"
            },
            "anchor": {
              "$": "ae816a046e0373e309d797da6f09dda32"
            },
            "arglist": {
              "$": "()"
            }
          },
          {
            "@kind": "function",
            "type": {
              "$": "void"
            },
            "name": {
              "$": "setDeclarativeEngine"
            },
            "anchorfile": {
              "$": "classKDeclarative_1_1KDeclarative.html"
            },
            "anchor": {
              "$": "aecff7c9205cf43eec9d4034aa987bfb6"
            },
            "arglist": {
              "$": "(QQmlEngine *engine)"
            }
          },
          {
            "@kind": "function",
            "type": {
              "$": "void"
            },
            "name": {
              "$": "setTranslationDomain"
            },
            "anchorfile": {
              "$": "classKDeclarative_1_1KDeclarative.html"
            },
            "anchor": {
              "$": "abfdbc6d6e4c9176f50f41922225517d4"
            },
            "arglist": {
              "$": "(const QString &translationDomain)"
            }
          },
          {
            "@kind": "function",
            "type": {
              "$": "void"
            },
            "name": {
              "$": "setupBindings"
            },
            "anchorfile": {
              "$": "classKDeclarative_1_1KDeclarative.html"
            },
            "anchor": {
              "$": "aed99feea3b8926162ad98f2f9bc6625a"
            },
            "arglist": {
              "$": "()"
            }
          },
          {
            "@kind": "function",
            "type": {
              "$": "void"
            },
            "name": {
              "$": "setupContext"
            },
            "anchorfile": {
              "$": "classKDeclarative_1_1KDeclarative.html"
            },
            "anchor": {
              "$": "a69b9004c62b3a623215f5807e0cc4b68"
            },
            "arglist": {
              "$": "()"
            }
          },
          {
            "@kind": "function",
            "type": {
              "$": "QString"
            },
            "name": {
              "$": "translationDomain"
            },
            "anchorfile": {
              "$": "classKDeclarative_1_1KDeclarative.html"
            },
            "anchor": {
              "$": "a785f3306262c4af9a3ab6d0bccb70baf"
            },
            "arglist": {
              "$": "() const"
            }
          },
          {
            "@kind": "function",
            "@static": "yes",
            "type": {
              "$": "static QString"
            },
            "name": {
              "$": "componentsTarget"
            },
            "anchorfile": {
              "$": "classKDeclarative_1_1KDeclarative.html"
            },
            "anchor": {
              "$": "a2554460d85096a0bdc6e6ccfb74f4e7a"
            },
            "arglist": {
              "$": "()"
            }
          },
          {
            "@kind": "function",
            "@static": "yes",
            "type": {
              "$": "static QString"
            },
            "name": {
              "$": "defaultComponentsTarget"
            },
            "anchorfile": {
              "$": "classKDeclarative_1_1KDeclarative.html"
            },
            "anchor": {
              "$": "a9865699c2118db28f93bc6b323fe225a"
            },
            "arglist": {
              "$": "()"
            }
          },
          {
            "@kind": "function",
            "@static": "yes",
            "type": {
              "$": "static QStringList"
            },
            "name": {
              "$": "runtimePlatform"
            },
            "anchorfile": {
              "$": "classKDeclarative_1_1KDeclarative.html"
            },
            "anchor": {
              "$": "a428e7cbf0853f40c6aa96be0ffb1f16f"
            },
            "arglist": {
              "$": "()"
            }
          },
          {
            "@kind": "function",
            "@static": "yes",
            "type": {
              "$": "static void"
            },
            "name": {
              "$": "setRuntimePlatform"
            },
            "anchorfile": {
              "$": "classKDeclarative_1_1KDeclarative.html"
            },
            "anchor": {
              "$": "a2a0f7ff4191a5b9fe4afdeacb0c7827c"
            },
            "arglist": {
              "$": "(const QStringList &platform)"
            }
          },
          {
            "@kind": "function",
            "@static": "yes",
            "type": {
              "$": "static void"
            },
            "name": {
              "$": "setupEngine"
            },
            "anchorfile": {
              "$": "classKDeclarative_1_1KDeclarative.html"
            },
            "anchor": {
              "$": "a3863c06d63b8bc4df21fecc461bf65ef"
            },
            "arglist": {
              "$": "(QQmlEngine *engine)"
            }
          },
          {
            "@kind": "function",
            "@static": "yes",
            "type": {
              "$": "static void"
            },
            "name": {
              "$": "setupQmlJsDebugger"
            },
            "anchorfile": {
              "$": "classKDeclarative_1_1KDeclarative.html"
            },
            "anchor": {
              "$": "aa93db648cc643ba706d19581d8b37fc9"
            },
            "arglist": {
              "$": "()"
            }
          }
        ]
      },
      {
        "@kind": "class",
        "name": {
          "$": "KDeclarativeMouseEvent"
        },
        "filename": {
          "$": "classKDeclarativeMouseEvent.html"
        },
        "base": {
          "$": "QObject"
        }
      },
      {
        "@kind": "class",
        "name": {
          "$": "org::kde::kquickcontrols::KeySequenceItem"
        },
        "filename": {
          "$": "classorg_1_1kde_1_1kquickcontrols_1_1KeySequenceItem.html"
        },
        "member": [
          {
            "@kind": "property",
            "type": {
              "$": "alias"
            },
            "name": {
              "$": "checkForConflictsAgainst"
            },
            "anchorfile": {
              "$": "classorg_1_1kde_1_1kquickcontrols_1_1KeySequenceItem.html"
            },
            "anchor": {
              "$": "a9e8d7e6b56600b62e7f533c17b4852d5"
            },
            "arglist": {}
          },
          {
            "@kind": "signal",
            "type": {
              "$": "void"
            },
            "name": {
              "$": "captureFinished"
            },
            "anchorfile": {
              "$": "classorg_1_1kde_1_1kquickcontrols_1_1KeySequenceItem.html"
            },
            "anchor": {
              "$": "a68134bdd111d01ff16aecff3213e93bd"
            },
            "arglist": {
              "$": "()"
            }
          },
          {
            "@kind": "function",
            "type": {
              "$": "void"
            },
            "name": {
              "$": "startCapturing"
            },
            "anchorfile": {
              "$": "classorg_1_1kde_1_1kquickcontrols_1_1KeySequenceItem.html"
            },
            "anchor": {
              "$": "a6f2e10fefcc4cfd8a1ce866eb14f2bdf"
            },
            "arglist": {
              "$": "()"
            }
          }
        ]
      },
      {
        "@kind": "class",
        "name": {
          "$": "KUserProxy"
        },
        "filename": {
          "$": "classKUserProxy.html"
        },
        "base": {
          "$": "QObject"
        },
        "member": [
          {
            "@kind": "signal",
            "type": {
              "$": "void"
            },
            "name": {
              "$": "faceIconUrlChanged"
            },
            "anchorfile": {
              "$": "classKUserProxy.html"
            },
            "anchor": {
              "$": "a7dd33703306e52718962dc65cb3858b7"
            },
            "arglist": {
              "$": "()"
            }
          },
          {
            "@kind": "signal",
            "type": {
              "$": "void"
            },
            "name": {
              "$": "nameChanged"
            },
            "anchorfile": {
              "$": "classKUserProxy.html"
            },
            "anchor": {
              "$": "aa2ac2f7e98f817d8d54c522468a15766"
            },
            "arglist": {
              "$": "()"
            }
          },
          {
            "@kind": "function",
            "type": {
              "$": "QUrl"
            },
            "name": {
              "$": "faceIconUrl"
            },
            "anchorfile": {
              "$": "classKUserProxy.html"
            },
            "anchor": {
              "$": "a5fc98c9445af0c457170a58c25205fb2"
            },
            "arglist": {
              "$": "() const"
            }
          },
          {
            "@kind": "function",
            "type": {
              "$": "QString"
            },
            "name": {
              "$": "fullName"
            },
            "anchorfile": {
              "$": "classKUserProxy.html"
            },
            "anchor": {
              "$": "aeeb97f43098d39acc9e6508b71ce26cd"
            },
            "arglist": {
              "$": "() const"
            }
          },
          {
            "@kind": "function",
            "type": {
              "$": "QString"
            },
            "name": {
              "$": "host"
            },
            "anchorfile": {
              "$": "classKUserProxy.html"
            },
            "anchor": {
              "$": "a9cf8a40c2d2cc43482a80f594f32327d"
            },
            "arglist": {
              "$": "() const"
            }
          },
          {
            "@kind": "function",
            "type": {
              "$": "QString"
            },
            "name": {
              "$": "loginName"
            },
            "anchorfile": {
              "$": "classKUserProxy.html"
            },
            "anchor": {
              "$": "a97637dd24b4d8e08e5ba8012e7e92362"
            },
            "arglist": {
              "$": "() const"
            }
          },
          {
            "@kind": "function",
            "type": {
              "$": "QString"
            },
            "name": {
              "$": "os"
            },
            "anchorfile": {
              "$": "classKUserProxy.html"
            },
            "anchor": {
              "$": "aeac453c6226e734dacb41fc9e35fdf89"
            },
            "arglist": {
              "$": "()"
            }
          }
        ]
      },
      {
        "@kind": "class",
        "name": {
          "$": "KWindowSystemProxy"
        },
        "filename": {
          "$": "classKWindowSystemProxy.html"
        },
        "base": {
          "$": "QObject"
        },
        "member": [
          {
            "@kind": "property",
            "type": {
              "$": "bool"
            },
            "name": {
              "$": "compositingActive"
            },
            "anchorfile": {
              "$": "classKWindowSystemProxy.html"
            },
            "anchor": {
              "$": "a85569af58980beee8eef4b8592d52d55"
            },
            "arglist": {}
          },
          {
            "@kind": "property",
            "type": {
              "$": "int"
            },
            "name": {
              "$": "currentDesktop"
            },
            "anchorfile": {
              "$": "classKWindowSystemProxy.html"
            },
            "anchor": {
              "$": "a4ab03196d2c191dab25d6a88b2745e77"
            },
            "arglist": {}
          },
          {
            "@kind": "property",
            "type": {
              "$": "QString"
            },
            "name": {
              "$": "currentDesktopName"
            },
            "anchorfile": {
              "$": "classKWindowSystemProxy.html"
            },
            "anchor": {
              "$": "af9f6ae219a79de83a3d59a4accbe5474"
            },
            "arglist": {}
          },
          {
            "@kind": "property",
            "type": {
              "$": "bool"
            },
            "name": {
              "$": "isPlatformWayland"
            },
            "anchorfile": {
              "$": "classKWindowSystemProxy.html"
            },
            "anchor": {
              "$": "a360138afefdd689c57a7d5de8df53876"
            },
            "arglist": {}
          },
          {
            "@kind": "property",
            "type": {
              "$": "bool"
            },
            "name": {
              "$": "isPlatformX11"
            },
            "anchorfile": {
              "$": "classKWindowSystemProxy.html"
            },
            "anchor": {
              "$": "a76d348730a6a007d007013bd3f611ef4"
            },
            "arglist": {}
          },
          {
            "@kind": "property",
            "type": {
              "$": "int"
            },
            "name": {
              "$": "numberOfDesktops"
            },
            "anchorfile": {
              "$": "classKWindowSystemProxy.html"
            },
            "anchor": {
              "$": "a985d730fb7d15855ef523d4bb19f2863"
            },
            "arglist": {}
          },
          {
            "@kind": "property",
            "type": {
              "$": "bool"
            },
            "name": {
              "$": "showingDesktop"
            },
            "anchorfile": {
              "$": "classKWindowSystemProxy.html"
            },
            "anchor": {
              "$": "a4ecfe2f2fbdcdd8b68f0d31f3aadbe3c"
            },
            "arglist": {}
          },
          {
            "@kind": "function",
            "type": {
              "$": "Q_INVOKABLE QString"
            },
            "name": {
              "$": "desktopName"
            },
            "anchorfile": {
              "$": "classKWindowSystemProxy.html"
            },
            "anchor": {
              "$": "a905701b33a951679acafa200ff95cde0"
            },
            "arglist": {
              "$": "(int desktop) const"
            }
          },
          {
            "@kind": "function",
            "type": {
              "$": "Q_INVOKABLE void"
            },
            "name": {
              "$": "forceActivateWindow"
            },
            "anchorfile": {
              "$": "classKWindowSystemProxy.html"
            },
            "anchor": {
              "$": "acd8c1baede4fe242bbbcb7dd894c212f"
            },
            "arglist": {
              "$": "(QWindow *window, long time=0)"
            }
          },
          {
            "@kind": "function",
            "type": {
              "$": "Q_INVOKABLE bool"
            },
            "name": {
              "$": "hasWindow"
            },
            "anchorfile": {
              "$": "classKWindowSystemProxy.html"
            },
            "anchor": {
              "$": "aa3b7d445f3745189b130081c6cb52e9e"
            },
            "arglist": {
              "$": "(QWindow *window) const"
            }
          },
          {
            "@kind": "function",
            "type": {
              "$": "Q_INVOKABLE void"
            },
            "name": {
              "$": "setDesktopName"
            },
            "anchorfile": {
              "$": "classKWindowSystemProxy.html"
            },
            "anchor": {
              "$": "aa5438b8260f9735e9ac4a6bc32a6df03"
            },
            "arglist": {
              "$": "(int desktop, const QString &name)"
            }
          },
          {
            "@kind": "function",
            "type": {
              "$": "Q_INVOKABLE void"
            },
            "name": {
              "$": "setOnActivities"
            },
            "anchorfile": {
              "$": "classKWindowSystemProxy.html"
            },
            "anchor": {
              "$": "a21b16377838c7c5484573682d08fbd72"
            },
            "arglist": {
              "$": "(QWindow *window, const QStringList &activities)"
            }
          },
          {
            "@kind": "function",
            "type": {
              "$": "Q_INVOKABLE void"
            },
            "name": {
              "$": "setOnAllDesktops"
            },
            "anchorfile": {
              "$": "classKWindowSystemProxy.html"
            },
            "anchor": {
              "$": "abad98cad46d83436096d84421216762e"
            },
            "arglist": {
              "$": "(QWindow *window, bool onAllDesktops)"
            }
          },
          {
            "@kind": "function",
            "type": {
              "$": "Q_INVOKABLE void"
            },
            "name": {
              "$": "setOnDesktop"
            },
            "anchorfile": {
              "$": "classKWindowSystemProxy.html"
            },
            "anchor": {
              "$": "aa85b5a30426a4dd5791dd10f01084f46"
            },
            "arglist": {
              "$": "(QWindow *window, int desktop)"
            }
          }
        ]
      },
      {
        "@kind": "class",
        "name": {
          "$": "org::kde::graphicaleffects::Lanczos"
        },
        "filename": {
          "$": "classorg_1_1kde_1_1graphicaleffects_1_1Lanczos.html"
        },
        "member": [
          {
            "@kind": "property",
            "type": {
              "$": "real"
            },
            "name": {
              "$": "antiRingingStrength"
            },
            "anchorfile": {
              "$": "classorg_1_1kde_1_1graphicaleffects_1_1Lanczos.html"
            },
            "anchor": {
              "$": "a0a5a27b64cff9a1984a084ac6b7a185f"
            },
            "arglist": {}
          },
          {
            "@kind": "property",
            "type": {
              "$": "real"
            },
            "name": {
              "$": "resolution"
            },
            "anchorfile": {
              "$": "classorg_1_1kde_1_1graphicaleffects_1_1Lanczos.html"
            },
            "anchor": {
              "$": "a1464c3cba10ddfcd3065ac988d8cf373"
            },
            "arglist": {}
          },
          {
            "@kind": "property",
            "type": {
              "$": "real"
            },
            "name": {
              "$": "sinc"
            },
            "anchorfile": {
              "$": "classorg_1_1kde_1_1graphicaleffects_1_1Lanczos.html"
            },
            "anchor": {
              "$": "a2d31c14b86d442d5146aaa7846a0c031"
            },
            "arglist": {}
          },
          {
            "@kind": "property",
            "type": {
              "$": "var"
            },
            "name": {
              "$": "source"
            },
            "anchorfile": {
              "$": "classorg_1_1kde_1_1graphicaleffects_1_1Lanczos.html"
            },
            "anchor": {
              "$": "a5e5aa2f981a460ed7c5383e0f63d8bb6"
            },
            "arglist": {}
          },
          {
            "@kind": "property",
            "type": {
              "$": "size"
            },
            "name": {
              "$": "sourceSize"
            },
            "anchorfile": {
              "$": "classorg_1_1kde_1_1graphicaleffects_1_1Lanczos.html"
            },
            "anchor": {
              "$": "a679d0b6f8ef7cd9be27c9458a3f05cfc"
            },
            "arglist": {}
          },
          {
            "@kind": "property",
            "type": {
              "$": "size"
            },
            "name": {
              "$": "targetSize"
            },
            "anchorfile": {
              "$": "classorg_1_1kde_1_1graphicaleffects_1_1Lanczos.html"
            },
            "anchor": {
              "$": "af95f6e225c1327df958d8dd06ac0503f"
            },
            "arglist": {}
          },
          {
            "@kind": "property",
            "type": {
              "$": "real"
            },
            "name": {
              "$": "windowSinc"
            },
            "anchorfile": {
              "$": "classorg_1_1kde_1_1graphicaleffects_1_1Lanczos.html"
            },
            "anchor": {
              "$": "a4a86554976e11887dbcb0071f52b8b5f"
            },
            "arglist": {}
          }
        ]
      },
      {
        "@kind": "class",
        "name": {
          "$": "KQuickAddons::ManagedConfigModule"
        },
        "filename": {
          "$": "classKQuickAddons_1_1ManagedConfigModule.html"
        },
        "base": {
          "$": "KQuickAddons::ConfigModule"
        },
        "member": [
          {
            "@kind": "slot",
            "type": {
              "$": "void"
            },
            "name": {
              "$": "defaults"
            },
            "anchorfile": {
              "$": "classKQuickAddons_1_1ManagedConfigModule.html"
            },
            "anchor": {
              "$": "a17282d897fa2978688775661c9637fff"
            },
            "arglist": {
              "$": "() override"
            }
          },
          {
            "@kind": "slot",
            "type": {
              "$": "void"
            },
            "name": {
              "$": "load"
            },
            "anchorfile": {
              "$": "classKQuickAddons_1_1ManagedConfigModule.html"
            },
            "anchor": {
              "$": "a6af1e6253dabffe4295b972b71c84751"
            },
            "arglist": {
              "$": "() override"
            }
          },
          {
            "@kind": "slot",
            "type": {
              "$": "void"
            },
            "name": {
              "$": "save"
            },
            "anchorfile": {
              "$": "classKQuickAddons_1_1ManagedConfigModule.html"
            },
            "anchor": {
              "$": "abe7a611fdaddf2c80177c431a311df5b"
            },
            "arglist": {
              "$": "() override"
            }
          },
          {
            "@kind": "function",
            "type": {},
            "name": {
              "$": "ManagedConfigModule"
            },
            "anchorfile": {
              "$": "classKQuickAddons_1_1ManagedConfigModule.html"
            },
            "anchor": {
              "$": "ac92375e614722998fe85402dc3fccb55"
            },
            "arglist": {
              "$": "(const KAboutData *aboutData, QObject *parent=nullptr, const QVariantList &args=QVariantList())"
            }
          },
          {
            "@kind": "function",
            "type": {},
            "name": {
              "$": "ManagedConfigModule"
            },
            "anchorfile": {
              "$": "classKQuickAddons_1_1ManagedConfigModule.html"
            },
            "anchor": {
              "$": "a3c781fc32a36b62d7015897f54b19813"
            },
            "arglist": {
              "$": "(const KPluginMetaData &metaData, QObject *parent=nullptr, const QVariantList &args=QVariantList())"
            }
          },
          {
            "@kind": "function",
            "type": {},
            "name": {
              "$": "ManagedConfigModule"
            },
            "anchorfile": {
              "$": "classKQuickAddons_1_1ManagedConfigModule.html"
            },
            "anchor": {
              "$": "a2085002e71e9dca003e914ee0a73d83c"
            },
            "arglist": {
              "$": "(QObject *parent, const KPluginMetaData &metaData, const QVariantList &args=QVariantList())"
            }
          },
          {
            "@kind": "function",
            "type": {},
            "name": {
              "$": "ManagedConfigModule"
            },
            "anchorfile": {
              "$": "classKQuickAddons_1_1ManagedConfigModule.html"
            },
            "anchor": {
              "$": "afe2fd01d83eb8f7e150388aad6151139"
            },
            "arglist": {
              "$": "(QObject *parent=nullptr, const QVariantList &args=QVariantList())"
            }
          },
          {
            "@kind": "function",
            "type": {},
            "name": {
              "$": "~ManagedConfigModule"
            },
            "anchorfile": {
              "$": "classKQuickAddons_1_1ManagedConfigModule.html"
            },
            "anchor": {
              "$": "a6e133c173d46e8b9d5f89f0f1d82bbbe"
            },
            "arglist": {
              "$": "() override"
            }
          },
          {
            "@kind": "slot",
            "@protection": "protected",
            "type": {
              "$": "void"
            },
            "name": {
              "$": "registerSettings"
            },
            "anchorfile": {
              "$": "classKQuickAddons_1_1ManagedConfigModule.html"
            },
            "anchor": {
              "$": "a9be46703e323e33bb135f1e113b7a619"
            },
            "arglist": {
              "$": "(KCoreConfigSkeleton *skeleton)"
            }
          },
          {
            "@kind": "slot",
            "@protection": "protected",
            "type": {
              "$": "void"
            },
            "name": {
              "$": "settingsChanged"
            },
            "anchorfile": {
              "$": "classKQuickAddons_1_1ManagedConfigModule.html"
            },
            "anchor": {
              "$": "a0bca3c5ccb998493aada70d82e35bf60"
            },
            "arglist": {
              "$": "()"
            }
          }
        ]
      },
      {
        "@kind": "class",
        "name": {
          "$": "ManagedTextureNode"
        },
        "filename": {
          "$": "classManagedTextureNode.html"
        },
        "base": {
          "$": "QSGSimpleTextureNode"
        }
      },
      {
        "@kind": "class",
        "name": {
          "$": "MimeDataWrapper"
        },
        "filename": {
          "$": "classMimeDataWrapper.html"
        },
        "base": {
          "$": "QObject"
        },
        "member": [
          {
            "@kind": "property",
            "type": {
              "$": "QVariant"
            },
            "name": {
              "$": "color"
            },
            "anchorfile": {
              "$": "classMimeDataWrapper.html"
            },
            "anchor": {
              "$": "ad6074ef602220a941f1b6da691bda2ae"
            },
            "arglist": {}
          },
          {
            "@kind": "property",
            "type": {
              "$": "QStringList"
            },
            "name": {
              "$": "formats"
            },
            "anchorfile": {
              "$": "classMimeDataWrapper.html"
            },
            "anchor": {
              "$": "a7cf96057e01fa4287597a9c2a87e7721"
            },
            "arglist": {}
          },
          {
            "@kind": "property",
            "type": {
              "$": "bool"
            },
            "name": {
              "$": "hasUrls"
            },
            "anchorfile": {
              "$": "classMimeDataWrapper.html"
            },
            "anchor": {
              "$": "a071326f028e8f2c177b4b280b0d8b410"
            },
            "arglist": {}
          },
          {
            "@kind": "property",
            "type": {
              "$": "QString"
            },
            "name": {
              "$": "html"
            },
            "anchorfile": {
              "$": "classMimeDataWrapper.html"
            },
            "anchor": {
              "$": "aab2b955b1bb043dffdefdd1e4d1484a9"
            },
            "arglist": {}
          },
          {
            "@kind": "property",
            "type": {
              "$": "QMimeData"
            },
            "name": {
              "$": "mimeData"
            },
            "anchorfile": {
              "$": "classMimeDataWrapper.html"
            },
            "anchor": {
              "$": "a2f7d222804c5cb3c9df2dfe8c453f292"
            },
            "arglist": {}
          },
          {
            "@kind": "property",
            "type": {
              "$": "QVariant"
            },
            "name": {
              "$": "source"
            },
            "anchorfile": {
              "$": "classMimeDataWrapper.html"
            },
            "anchor": {
              "$": "aaf18bab4177e36aeaa38f45e3c5839c8"
            },
            "arglist": {}
          },
          {
            "@kind": "property",
            "type": {
              "$": "QString"
            },
            "name": {
              "$": "text"
            },
            "anchorfile": {
              "$": "classMimeDataWrapper.html"
            },
            "anchor": {
              "$": "a5752f414ce2c90e63e45b80dc7d974ef"
            },
            "arglist": {}
          },
          {
            "@kind": "property",
            "type": {
              "$": "QUrl"
            },
            "name": {
              "$": "url"
            },
            "anchorfile": {
              "$": "classMimeDataWrapper.html"
            },
            "anchor": {
              "$": "a350faeb50d92d8b326f87084835f0bb5"
            },
            "arglist": {}
          },
          {
            "@kind": "property",
            "type": {
              "$": "QJsonArray"
            },
            "name": {
              "$": "urls"
            },
            "anchorfile": {
              "$": "classMimeDataWrapper.html"
            },
            "anchor": {
              "$": "afae493245c8241b507eb3f76ad594096"
            },
            "arglist": {}
          }
        ]
      },
      {
        "@kind": "class",
        "name": {
          "$": "PlotData"
        },
        "filename": {
          "$": "classPlotData.html"
        },
        "base": {
          "$": "QObject"
        },
        "member": [
          {
            "@kind": "property",
            "type": {
              "$": "QColor"
            },
            "name": {
              "$": "color"
            },
            "anchorfile": {
              "$": "classPlotData.html"
            },
            "anchor": {
              "$": "aa17ac3c2cca6a905bf52591f8bb3fd32"
            },
            "arglist": {}
          },
          {
            "@kind": "property",
            "type": {
              "$": "QString"
            },
            "name": {
              "$": "label"
            },
            "anchorfile": {
              "$": "classPlotData.html"
            },
            "anchor": {
              "$": "a122cf4f029c73f27cb9ad6728ece06f1"
            },
            "arglist": {}
          },
          {
            "@kind": "property",
            "type": {
              "$": "qreal"
            },
            "name": {
              "$": "max"
            },
            "anchorfile": {
              "$": "classPlotData.html"
            },
            "anchor": {
              "$": "a9e59d123cffa235f4c0b5619c8df39bf"
            },
            "arglist": {}
          },
          {
            "@kind": "property",
            "type": {
              "$": "qreal"
            },
            "name": {
              "$": "min"
            },
            "anchorfile": {
              "$": "classPlotData.html"
            },
            "anchor": {
              "$": "ad9fde7f7a952eca460a3779daa5a7ff7"
            },
            "arglist": {}
          },
          {
            "@kind": "property",
            "type": {
              "$": "QList< qreal >"
            },
            "name": {
              "$": "values"
            },
            "anchorfile": {
              "$": "classPlotData.html"
            },
            "anchor": {
              "$": "a2bbcb4de86dbf07c898bb9102b2f20a8"
            },
            "arglist": {}
          }
        ]
      },
      {
        "@kind": "class",
        "name": {
          "$": "KDeclarative::QmlObject"
        },
        "filename": {
          "$": "classKDeclarative_1_1QmlObject.html"
        },
        "base": {
          "$": "QObject"
        },
        "member": [
          {
            "@kind": "signal",
            "type": {
              "$": "void"
            },
            "name": {
              "$": "finished"
            },
            "anchorfile": {
              "$": "classKDeclarative_1_1QmlObject.html"
            },
            "anchor": {
              "$": "a25e3e86a183e2c9273c1119271d4cff8"
            },
            "arglist": {
              "$": "()"
            }
          },
          {
            "@kind": "slot",
            "type": {
              "$": "void"
            },
            "name": {
              "$": "completeInitialization"
            },
            "anchorfile": {
              "$": "classKDeclarative_1_1QmlObject.html"
            },
            "anchor": {
              "$": "a0d279161a226bd02d4e41177d93cf0ee"
            },
            "arglist": {
              "$": "(const QVariantHash &initialProperties=QVariantHash())"
            }
          },
          {
            "@kind": "function",
            "type": {},
            "name": {
              "$": "QmlObject"
            },
            "anchorfile": {
              "$": "classKDeclarative_1_1QmlObject.html"
            },
            "anchor": {
              "$": "a8ecd10287f753a6f93159f83b57be95a"
            },
            "arglist": {
              "$": "(QObject *parent=nullptr)"
            }
          },
          {
            "@kind": "function",
            "type": {},
            "name": {
              "$": "QmlObject"
            },
            "anchorfile": {
              "$": "classKDeclarative_1_1QmlObject.html"
            },
            "anchor": {
              "$": "ae56877b3d13d52dd1c42742a2df4ad0c"
            },
            "arglist": {
              "$": "(QQmlEngine *engine, QObject *parent=nullptr)"
            }
          },
          {
            "@kind": "function",
            "type": {},
            "name": {
              "$": "QmlObject"
            },
            "anchorfile": {
              "$": "classKDeclarative_1_1QmlObject.html"
            },
            "anchor": {
              "$": "a15787ba2b2da189135b7dabbae87a810"
            },
            "arglist": {
              "$": "(QQmlEngine *engine, QQmlContext *rootContext, QObject *parent=nullptr)"
            }
          },
          {
            "@kind": "function",
            "type": {},
            "name": {
              "$": "QmlObject"
            },
            "anchorfile": {
              "$": "classKDeclarative_1_1QmlObject.html"
            },
            "anchor": {
              "$": "a048e1a4771b3facf7d98a1e00753722a"
            },
            "arglist": {
              "$": "(std::shared_ptr< QQmlEngine > engine, QQmlContext *rootContext=nullptr, QObject *parent=nullptr)"
            }
          },
          {
            "@kind": "function",
            "type": {
              "$": "QObject *"
            },
            "name": {
              "$": "createObjectFromComponent"
            },
            "anchorfile": {
              "$": "classKDeclarative_1_1QmlObject.html"
            },
            "anchor": {
              "$": "a60bd897a3ab04d48cbee91a5e4014808"
            },
            "arglist": {
              "$": "(QQmlComponent *component, QQmlContext *context=nullptr, const QVariantHash &initialProperties=QVariantHash())"
            }
          },
          {
            "@kind": "function",
            "type": {
              "$": "QObject *"
            },
            "name": {
              "$": "createObjectFromSource"
            },
            "anchorfile": {
              "$": "classKDeclarative_1_1QmlObject.html"
            },
            "anchor": {
              "$": "afcdcb387a26df0dbc2a5b87e713e92a7"
            },
            "arglist": {
              "$": "(const QUrl &source, QQmlContext *context=nullptr, const QVariantHash &initialProperties=QVariantHash())"
            }
          },
          {
            "@kind": "function",
            "type": {
              "$": "QQmlEngine *"
            },
            "name": {
              "$": "engine"
            },
            "anchorfile": {
              "$": "classKDeclarative_1_1QmlObject.html"
            },
            "anchor": {
              "$": "a6eb64b1fa4e365b9bb8860b0de6e5bf1"
            },
            "arglist": {
              "$": "()"
            }
          },
          {
            "@kind": "function",
            "type": {
              "$": "bool"
            },
            "name": {
              "$": "isInitializationDelayed"
            },
            "anchorfile": {
              "$": "classKDeclarative_1_1QmlObject.html"
            },
            "anchor": {
              "$": "ad2b722721ef1ad829e9ae7bf2a4c6e18"
            },
            "arglist": {
              "$": "() const"
            }
          },
          {
            "@kind": "function",
            "type": {
              "$": "void"
            },
            "name": {
              "$": "loadPackage"
            },
            "anchorfile": {
              "$": "classKDeclarative_1_1QmlObject.html"
            },
            "anchor": {
              "$": "a380bfa50f3ba1e8a580af0285ac64c4b"
            },
            "arglist": {
              "$": "(const QString &packageName)"
            }
          },
          {
            "@kind": "function",
            "type": {
              "$": "QQmlComponent *"
            },
            "name": {
              "$": "mainComponent"
            },
            "anchorfile": {
              "$": "classKDeclarative_1_1QmlObject.html"
            },
            "anchor": {
              "$": "a6403a03892096f7aaca2aacfb8dc37f1"
            },
            "arglist": {
              "$": "() const"
            }
          },
          {
            "@kind": "function",
            "type": {
              "$": "KPackage::Package"
            },
            "name": {
              "$": "package"
            },
            "anchorfile": {
              "$": "classKDeclarative_1_1QmlObject.html"
            },
            "anchor": {
              "$": "ab2f1702180e0c3a9ca6d5409254b55c5"
            },
            "arglist": {
              "$": "() const"
            }
          },
          {
            "@kind": "function",
            "type": {
              "$": "QQmlContext *"
            },
            "name": {
              "$": "rootContext"
            },
            "anchorfile": {
              "$": "classKDeclarative_1_1QmlObject.html"
            },
            "anchor": {
              "$": "a26bc8084d1aa225ef66de677c788e40a"
            },
            "arglist": {
              "$": "() const"
            }
          },
          {
            "@kind": "function",
            "type": {
              "$": "QObject *"
            },
            "name": {
              "$": "rootObject"
            },
            "anchorfile": {
              "$": "classKDeclarative_1_1QmlObject.html"
            },
            "anchor": {
              "$": "a99915dcdd5a8b737f35815b1b96babec"
            },
            "arglist": {
              "$": "() const"
            }
          },
          {
            "@kind": "function",
            "type": {
              "$": "void"
            },
            "name": {
              "$": "setInitializationDelayed"
            },
            "anchorfile": {
              "$": "classKDeclarative_1_1QmlObject.html"
            },
            "anchor": {
              "$": "a61dd42137458e04f3d61081070244ae6"
            },
            "arglist": {
              "$": "(const bool delay)"
            }
          },
          {
            "@kind": "function",
            "type": {
              "$": "void"
            },
            "name": {
              "$": "setPackage"
            },
            "anchorfile": {
              "$": "classKDeclarative_1_1QmlObject.html"
            },
            "anchor": {
              "$": "a1aa0473c0c29f402c6973d3b2d03b38f"
            },
            "arglist": {
              "$": "(const KPackage::Package &package)"
            }
          },
          {
            "@kind": "function",
            "type": {
              "$": "void"
            },
            "name": {
              "$": "setSource"
            },
            "anchorfile": {
              "$": "classKDeclarative_1_1QmlObject.html"
            },
            "anchor": {
              "$": "a0e1066a0e0ccc1e3f9a506f9fa9d8b5c"
            },
            "arglist": {
              "$": "(const QUrl &source)"
            }
          },
          {
            "@kind": "function",
            "type": {
              "$": "void"
            },
            "name": {
              "$": "setTranslationDomain"
            },
            "anchorfile": {
              "$": "classKDeclarative_1_1QmlObject.html"
            },
            "anchor": {
              "$": "af7b983bb835fc045fa61fe5c075d7821"
            },
            "arglist": {
              "$": "(const QString &translationDomain)"
            }
          },
          {
            "@kind": "function",
            "type": {
              "$": "QUrl"
            },
            "name": {
              "$": "source"
            },
            "anchorfile": {
              "$": "classKDeclarative_1_1QmlObject.html"
            },
            "anchor": {
              "$": "a8b7c69d867ef860e765ae35b39c15940"
            },
            "arglist": {
              "$": "() const"
            }
          },
          {
            "@kind": "function",
            "type": {
              "$": "QQmlComponent::Status"
            },
            "name": {
              "$": "status"
            },
            "anchorfile": {
              "$": "classKDeclarative_1_1QmlObject.html"
            },
            "anchor": {
              "$": "a9c82a60ec98fddbf34af5e96999278bf"
            },
            "arglist": {
              "$": "() const"
            }
          },
          {
            "@kind": "function",
            "type": {
              "$": "QString"
            },
            "name": {
              "$": "translationDomain"
            },
            "anchorfile": {
              "$": "classKDeclarative_1_1QmlObject.html"
            },
            "anchor": {
              "$": "a2de78762c0c133cdd3577de5ce243521"
            },
            "arglist": {
              "$": "() const"
            }
          },
          {
            "@kind": "function",
            "@protection": "protected",
            "type": {},
            "name": {
              "$": "QmlObject"
            },
            "anchorfile": {
              "$": "classKDeclarative_1_1QmlObject.html"
            },
            "anchor": {
              "$": "acf48826d85bf6ba65e1717ce423c6b1a"
            },
            "arglist": {
              "$": "(QQmlEngine *engine, QQmlContext *rootContext, QmlObject *obj, QObject *parent=nullptr)"
            }
          }
        ]
      },
      {
        "@kind": "class",
        "name": {
          "$": "KDeclarative::QmlObjectSharedEngine"
        },
        "filename": {
          "$": "classKDeclarative_1_1QmlObjectSharedEngine.html"
        },
        "base": {
          "$": "KDeclarative::QmlObject"
        },
        "member": {
          "@kind": "function",
          "type": {},
          "name": {
            "$": "QmlObjectSharedEngine"
          },
          "anchorfile": {
            "$": "classKDeclarative_1_1QmlObjectSharedEngine.html"
          },
          "anchor": {
            "$": "ad9ee3be5bc4bd658a8f7701df62b67e2"
          },
          "arglist": {
            "$": "(QObject *parent=nullptr)"
          }
        }
      },
      {
        "@kind": "class",
        "name": {
          "$": "KQuickAddons::QuickViewSharedEngine"
        },
        "filename": {
          "$": "classKQuickAddons_1_1QuickViewSharedEngine.html"
        },
        "base": {
          "$": "QQuickWindow"
        },
        "member": [
          {
            "@kind": "function",
            "type": {
              "$": "void"
            },
            "name": {
              "$": "setTranslationDomain"
            },
            "anchorfile": {
              "$": "classKQuickAddons_1_1QuickViewSharedEngine.html"
            },
            "anchor": {
              "$": "afab206cc3d2abdbe9fb781dfe9ec875a"
            },
            "arglist": {
              "$": "(const QString &translationDomain)"
            }
          },
          {
            "@kind": "function",
            "type": {
              "$": "QString"
            },
            "name": {
              "$": "translationDomain"
            },
            "anchorfile": {
              "$": "classKQuickAddons_1_1QuickViewSharedEngine.html"
            },
            "anchor": {
              "$": "a5de9d55cc6f6137f38f05056a124f1e0"
            },
            "arglist": {
              "$": "() const"
            }
          }
        ]
      },
      {
        "@kind": "class",
        "name": {
          "$": "org::kde::kcm::ScrollView"
        },
        "filename": {
          "$": "classorg_1_1kde_1_1kcm_1_1ScrollView.html"
        },
        "member": {
          "@kind": "property",
          "type": {
            "$": "Flickable"
          },
          "name": {
            "$": "view"
          },
          "anchorfile": {
            "$": "classorg_1_1kde_1_1kcm_1_1ScrollView.html"
          },
          "anchor": {
            "$": "ac526d7a8cae459b4f36e786eec1fd851"
          },
          "arglist": {}
        }
      },
      {
        "@kind": "class",
        "name": {
          "$": "org::kde::kcm::ScrollViewKCM"
        },
        "filename": {
          "$": "classorg_1_1kde_1_1kcm_1_1ScrollViewKCM.html"
        },
        "member": {
          "@kind": "property",
          "type": {
            "$": "alias"
          },
          "name": {
            "$": "view"
          },
          "anchorfile": {
            "$": "classorg_1_1kde_1_1kcm_1_1ScrollViewKCM.html"
          },
          "anchor": {
            "$": "a87a0abf5c74978ae3d79b38aefabeef1"
          },
          "arglist": {}
        }
      },
      {
        "@kind": "class",
        "name": {
          "$": "org::kde::kcm::SettingHighlighter"
        },
        "filename": {
          "$": "classorg_1_1kde_1_1kcm_1_1SettingHighlighter.html"
        },
        "member": {
          "@kind": "property",
          "type": {
            "$": "alias"
          },
          "name": {
            "$": "target"
          },
          "anchorfile": {
            "$": "classorg_1_1kde_1_1kcm_1_1SettingHighlighter.html"
          },
          "anchor": {
            "$": "a5dc703c8373be400c509df5cc9ccad83"
          },
          "arglist": {}
        }
      },
      {
        "@kind": "class",
        "name": {
          "$": "org::kde::kcm::SettingStateBinding"
        },
        "filename": {
          "$": "classorg_1_1kde_1_1kcm_1_1SettingStateBinding.html"
        },
        "member": [
          {
            "@kind": "property",
            "type": {
              "$": "alias"
            },
            "name": {
              "$": "configObject"
            },
            "anchorfile": {
              "$": "classorg_1_1kde_1_1kcm_1_1SettingStateBinding.html"
            },
            "anchor": {
              "$": "a5672ce614bbfe26929e81b9ccacf2665"
            },
            "arglist": {}
          },
          {
            "@kind": "property",
            "type": {
              "$": "bool"
            },
            "name": {
              "$": "extraEnabledConditions"
            },
            "anchorfile": {
              "$": "classorg_1_1kde_1_1kcm_1_1SettingStateBinding.html"
            },
            "anchor": {
              "$": "af784d0fe50dab3b7468d7f3989a62d44"
            },
            "arglist": {}
          },
          {
            "@kind": "property",
            "type": {
              "$": "bool"
            },
            "name": {
              "$": "nonDefaultHighlightVisible"
            },
            "anchorfile": {
              "$": "classorg_1_1kde_1_1kcm_1_1SettingStateBinding.html"
            },
            "anchor": {
              "$": "a4960cb4b0f437cdf717934bdec78cdca"
            },
            "arglist": {}
          },
          {
            "@kind": "property",
            "type": {
              "$": "alias"
            },
            "name": {
              "$": "settingName"
            },
            "anchorfile": {
              "$": "classorg_1_1kde_1_1kcm_1_1SettingStateBinding.html"
            },
            "anchor": {
              "$": "a9e60a86a89332bf1e78085f4cc8d0267"
            },
            "arglist": {}
          },
          {
            "@kind": "property",
            "type": {
              "$": "alias"
            },
            "name": {
              "$": "target"
            },
            "anchorfile": {
              "$": "classorg_1_1kde_1_1kcm_1_1SettingStateBinding.html"
            },
            "anchor": {
              "$": "a5e72dd49e49eb02b4164f429e6733089"
            },
            "arglist": {}
          }
        ]
      },
      {
        "@kind": "class",
        "name": {
          "$": "SettingStateProxy"
        },
        "filename": {
          "$": "classSettingStateProxy.html"
        },
        "base": {
          "$": "QObject"
        },
        "member": [
          {
            "@kind": "property",
            "type": {
              "$": "KCoreConfigSkeleton"
            },
            "name": {
              "$": "configObject"
            },
            "anchorfile": {
              "$": "classSettingStateProxy.html"
            },
            "anchor": {
              "$": "a06eca3607c507e07fe6f174ff963c89b"
            },
            "arglist": {}
          },
          {
            "@kind": "property",
            "type": {
              "$": "bool"
            },
            "name": {
              "$": "defaulted"
            },
            "anchorfile": {
              "$": "classSettingStateProxy.html"
            },
            "anchor": {
              "$": "a1feb2cf8aefab220975e2e7592b2cec0"
            },
            "arglist": {}
          },
          {
            "@kind": "property",
            "type": {
              "$": "bool"
            },
            "name": {
              "$": "immutable"
            },
            "anchorfile": {
              "$": "classSettingStateProxy.html"
            },
            "anchor": {
              "$": "ac4f6c0c71b5c22406f487e24d1d498c0"
            },
            "arglist": {}
          },
          {
            "@kind": "property",
            "type": {
              "$": "QString"
            },
            "name": {
              "$": "settingName"
            },
            "anchorfile": {
              "$": "classSettingStateProxy.html"
            },
            "anchor": {
              "$": "abbd4aa12fbdd1f95a4da9408eefc842f"
            },
            "arglist": {}
          }
        ]
      },
      {
        "@kind": "class",
        "name": {
          "$": "CalendarEvents::ShowEventInterface"
        },
        "filename": {
          "$": "classCalendarEvents_1_1ShowEventInterface.html"
        },
        "member": {
          "@kind": "function",
          "@virtualness": "pure",
          "type": {
            "$": "virtual bool"
          },
          "name": {
            "$": "showEvent"
          },
          "anchorfile": {
            "$": "classCalendarEvents_1_1ShowEventInterface.html"
          },
          "anchor": {
            "$": "a3d0e499a54cb700dab8a805ec93c9ae0"
          },
          "arglist": {
            "$": "(const QString &uid)=0"
          }
        }
      },
      {
        "@kind": "class",
        "name": {
          "$": "org::kde::kcm::SimpleKCM"
        },
        "filename": {
          "$": "classorg_1_1kde_1_1kcm_1_1SimpleKCM.html"
        },
        "base": {
          "$": "org::kde::kirigami::ScrollablePage"
        },
        "member": {
          "@kind": "property",
          "type": {
            "$": "int"
          },
          "name": {
            "$": "margins"
          },
          "anchorfile": {
            "$": "classorg_1_1kde_1_1kcm_1_1SimpleKCM.html"
          },
          "anchor": {
            "$": "a620698d0e87c08d88c04b3572851ded5"
          },
          "arglist": {}
        }
      },
      {
        "@kind": "page",
        "name": {
          "$": "index"
        },
        "title": {
          "$": "KDeclarative"
        },
        "filename": {
          "$": "index"
        }
      }
    ]
  }
}